%YAML 1.1
%TAG !u! tag:unity3d.com,2011:
--- !u!74 &7400000
AnimationClip:
  m_ObjectHideFlags: 0
  m_CorrespondingSourceObject: {fileID: 0}
  m_PrefabInstance: {fileID: 0}
  m_PrefabAsset: {fileID: 0}
  m_Name: Donald_Jump
  serializedVersion: 6
  m_Legacy: 0
  m_Compressed: 0
  m_UseHighQualityCurve: 1
  m_RotationCurves: []
  m_CompressedRotationCurves: []
  m_EulerCurves: []
  m_PositionCurves: []
  m_ScaleCurves: []
  m_FloatCurves: []
  m_PPtrCurves:
  - curve:
    - time: 0
      value: {fileID: -6008364318538452900, guid: 684818e8321ee3d4496781413ad17110, type: 3}
    - time: 0.1
      value: {fileID: 6755656544358320220, guid: 684818e8321ee3d4496781413ad17110, type: 3}
    - time: 0.2
      value: {fileID: 7738185224244256453, guid: 684818e8321ee3d4496781413ad17110, type: 3}
    - time: 0.3
      value: {fileID: -1800860254742033751, guid: 684818e8321ee3d4496781413ad17110, type: 3}
    - time: 0.4
      value: {fileID: -996745978520813199, guid: 684818e8321ee3d4496781413ad17110, type: 3}
    - time: 0.5
      value: {fileID: 8994818092502143984, guid: 684818e8321ee3d4496781413ad17110, type: 3}
    - time: 0.5833333
      value: {fileID: 7495758022669618659, guid: 684818e8321ee3d4496781413ad17110, type: 3}
    - time: 0.65
      value: {fileID: -4695135414409081017, guid: 684818e8321ee3d4496781413ad17110, type: 3}
    - time: 0.75
      value: {fileID: 3394489903941402444, guid: 684818e8321ee3d4496781413ad17110, type: 3}
    - time: 0.93333334
      value: {fileID: 5835549256224590038, guid: 684818e8321ee3d4496781413ad17110, type: 3}
    - time: 1.1333333
      value: {fileID: -4924443762263125958, guid: 684818e8321ee3d4496781413ad17110, type: 3}
    - time: 1.3166667
      value: {fileID: -2670957732320002291, guid: 684818e8321ee3d4496781413ad17110, type: 3}
    - time: 1.5
      value: {fileID: -2751799877096861239, guid: 684818e8321ee3d4496781413ad17110, type: 3}
    - time: 1.5333333
      value: {fileID: 2078338178572653879, guid: 684818e8321ee3d4496781413ad17110, type: 3}
    - time: 1.55
      value: {fileID: -270608225340109137, guid: 684818e8321ee3d4496781413ad17110, type: 3}
    - time: 1.5666667
      value: {fileID: -4915639560886265357, guid: 684818e8321ee3d4496781413ad17110, type: 3}
    - time: 1.6
      value: {fileID: 490568100487222797, guid: 684818e8321ee3d4496781413ad17110, type: 3}
    - time: 1.6333333
      value: {fileID: 5061452483226919638, guid: 684818e8321ee3d4496781413ad17110, type: 3}
    - time: 1.65
      value: {fileID: 768673612670764785, guid: 684818e8321ee3d4496781413ad17110, type: 3}
    - time: 1.6666666
      value: {fileID: 6207035432503716793, guid: 684818e8321ee3d4496781413ad17110, type: 3}
    - time: 1.7
      value: {fileID: -5281766144319473183, guid: 684818e8321ee3d4496781413ad17110, type: 3}
    - time: 1.7166667
      value: {fileID: 7407745253166970522, guid: 684818e8321ee3d4496781413ad17110, type: 3}
    - time: 1.75
      value: {fileID: 889428224630475588, guid: 684818e8321ee3d4496781413ad17110, type: 3}
    attribute: m_Sprite
    path: 
    classID: 212
    script: {fileID: 0}
  m_SampleRate: 60
  m_WrapMode: 0
  m_Bounds:
    m_Center: {x: 0, y: 0, z: 0}
    m_Extent: {x: 0, y: 0, z: 0}
  m_ClipBindingConstant:
    genericBindings:
    - serializedVersion: 2
      path: 0
      attribute: 0
      script: {fileID: 0}
      typeID: 212
      customType: 23
      isPPtrCurve: 1
    pptrCurveMapping:
    - {fileID: -6008364318538452900, guid: 684818e8321ee3d4496781413ad17110, type: 3}
    - {fileID: 6755656544358320220, guid: 684818e8321ee3d4496781413ad17110, type: 3}
    - {fileID: 7738185224244256453, guid: 684818e8321ee3d4496781413ad17110, type: 3}
    - {fileID: -1800860254742033751, guid: 684818e8321ee3d4496781413ad17110, type: 3}
    - {fileID: -996745978520813199, guid: 684818e8321ee3d4496781413ad17110, type: 3}
    - {fileID: 8994818092502143984, guid: 684818e8321ee3d4496781413ad17110, type: 3}
    - {fileID: 7495758022669618659, guid: 684818e8321ee3d4496781413ad17110, type: 3}
    - {fileID: -4695135414409081017, guid: 684818e8321ee3d4496781413ad17110, type: 3}
    - {fileID: 3394489903941402444, guid: 684818e8321ee3d4496781413ad17110, type: 3}
    - {fileID: 5835549256224590038, guid: 684818e8321ee3d4496781413ad17110, type: 3}
    - {fileID: -4924443762263125958, guid: 684818e8321ee3d4496781413ad17110, type: 3}
    - {fileID: -2670957732320002291, guid: 684818e8321ee3d4496781413ad17110, type: 3}
    - {fileID: -2751799877096861239, guid: 684818e8321ee3d4496781413ad17110, type: 3}
    - {fileID: 2078338178572653879, guid: 684818e8321ee3d4496781413ad17110, type: 3}
    - {fileID: -270608225340109137, guid: 684818e8321ee3d4496781413ad17110, type: 3}
    - {fileID: -4915639560886265357, guid: 684818e8321ee3d4496781413ad17110, type: 3}
    - {fileID: 490568100487222797, guid: 684818e8321ee3d4496781413ad17110, type: 3}
    - {fileID: 5061452483226919638, guid: 684818e8321ee3d4496781413ad17110, type: 3}
    - {fileID: 768673612670764785, guid: 684818e8321ee3d4496781413ad17110, type: 3}
    - {fileID: 6207035432503716793, guid: 684818e8321ee3d4496781413ad17110, type: 3}
    - {fileID: -5281766144319473183, guid: 684818e8321ee3d4496781413ad17110, type: 3}
    - {fileID: 7407745253166970522, guid: 684818e8321ee3d4496781413ad17110, type: 3}
    - {fileID: 889428224630475588, guid: 684818e8321ee3d4496781413ad17110, type: 3}
  m_AnimationClipSettings:
    serializedVersion: 2
    m_AdditiveReferencePoseClip: {fileID: 0}
    m_AdditiveReferencePoseTime: 0
    m_StartTime: 0
    m_StopTime: 1.7666667
    m_OrientationOffsetY: 0
    m_Level: 0
    m_CycleOffset: 0
    m_HasAdditiveReferencePose: 0
    m_LoopTime: 0
    m_LoopBlend: 0
    m_LoopBlendOrientation: 0
    m_LoopBlendPositionY: 0
    m_LoopBlendPositionXZ: 0
    m_KeepOriginalOrientation: 0
    m_KeepOriginalPositionY: 1
    m_KeepOriginalPositionXZ: 0
    m_HeightFromFeet: 0
    m_Mirror: 0
  m_EditorCurves: []
  m_EulerEditorCurves: []
  m_HasGenericRootTransform: 0
  m_HasMotionFloatCurves: 0
  m_Events: []
